Kaarlo Juho ; 1865
Lauri Kristian ; 1883
Pehr ; 1861
Kyosti ; 1873
Risto Heikki ; 1889
Carl Gustaf Emil ; 1867
Juho ; 1870
Urho ; 1900
Mauno Henrik ; 1923
Martti Oiva Kalevi ; 1937
Tarja Kaarina ; 1943
Sauli ; 1948